MC 2018 Opioid Crimes
…
MCOpioid <- select(Opioid_Crime_Incidents_Jan_1_2017_Present, "Incident ID", "Offence Code", "Crime Name3", "Zip Code", "Start Date/Time")
MCOpioid

## # A tibble: 369 x 5
##    `Incident ID` `Offence Code` `Crime Name3` `Zip Code`
##            <dbl>          <dbl> <chr>              <dbl>
##  1     201149522           3512 DRUGS - HERO…      20833
##  2     201225909           3520 DRUGS - OPIU…      20850
##  3     201219070           3512 DRUGS - HERO…      20906
##  4     201210515           3510 DRUGS - HERO…      20910
##  5     201223469           3512 DRUGS - HERO…      20872
##  6     201214813           3512 DRUGS - HERO…      20872
##  7     201218359           3522 DRUGS - OPIU…      20874
##  8     201223976           3512 DRUGS - HERO…      20906
##  9     201144509           3522 DRUGS - OPIU…      20878
## 10     201225946           3512 DRUGS - HERO…      20879
## # … with 359 more rows, and 1 more variable: `Start Date/Time` <dttm>

MCOpioid <- rename(MCOpioid, Year = "Start Date/Time", Crime = "Crime Name3")
MCOpioid

## # A tibble: 369 x 5
##    `Incident ID` `Offence Code` Crime        `Zip Code` Year               
##            <dbl>          <dbl> <chr>             <dbl> <dttm>             
##  1     201149522           3512 DRUGS - HER…      20833 2017-08-24 19:50:00
##  2     201225909           3520 DRUGS - OPI…      20850 2019-02-06 13:55:00
##  3     201219070           3512 DRUGS - HER…      20906 2018-12-16 07:10:00
##  4     201210515           3510 DRUGS - HER…      20910 2018-10-15 13:25:00
##  5     201223469           3512 DRUGS - HER…      20872 2019-01-16 20:23:00
##  6     201214813           3512 DRUGS - HER…      20872 2018-11-15 19:26:00
##  7     201218359           3522 DRUGS - OPI…      20874 2018-12-05 21:06:00
##  8     201223976           3512 DRUGS - HER…      20906 2019-01-22 17:08:00
##  9     201144509           3522 DRUGS - OPI…      20878 2017-07-21 22:54:00
## 10     201225946           3512 DRUGS - HER…      20879 2019-02-05 22:14:00
## # … with 359 more rows

MCOpioid <- mutate(MCOpioid, Year = format(MCOpioid$'Year', format = "%Y"))
MCOpioid

## # A tibble: 369 x 5
##    `Incident ID` `Offence Code` Crime                      `Zip Code` Year 
##            <dbl>          <dbl> <chr>                           <dbl> <chr>
##  1     201149522           3512 DRUGS - HEROIN - POSSESS        20833 2017 
##  2     201225909           3520 DRUGS - OPIUM OR DERIVATI…      20850 2019 
##  3     201219070           3512 DRUGS - HEROIN - POSSESS        20906 2018 
##  4     201210515           3510 DRUGS - HEROIN - SELL           20910 2018 
##  5     201223469           3512 DRUGS - HEROIN - POSSESS        20872 2019 
##  6     201214813           3512 DRUGS - HEROIN - POSSESS        20872 2018 
##  7     201218359           3522 DRUGS - OPIUM OR DERIVATI…      20874 2018 
##  8     201223976           3512 DRUGS - HEROIN - POSSESS        20906 2019 
##  9     201144509           3522 DRUGS - OPIUM OR DERIVATI…      20878 2017 
## 10     201225946           3512 DRUGS - HEROIN - POSSESS        20879 2019 
## # … with 359 more rows

MCOpioid <- filter(MCOpioid, Year == 2018)
MCOpioid

## # A tibble: 292 x 5
##    `Incident ID` `Offence Code` Crime                      `Zip Code` Year 
##            <dbl>          <dbl> <chr>                           <dbl> <chr>
##  1     201219070           3512 DRUGS - HEROIN - POSSESS        20906 2018 
##  2     201210515           3510 DRUGS - HEROIN - SELL           20910 2018 
##  3     201214813           3512 DRUGS - HEROIN - POSSESS        20872 2018 
##  4     201218359           3522 DRUGS - OPIUM OR DERIVATI…      20874 2018 
##  5     201207260           3522 DRUGS - OPIUM OR DERIVATI…      20866 2018 
##  6     201198147           3520 DRUGS - OPIUM OR DERIVATI…      20906 2018 
##  7     201198147           3522 DRUGS - OPIUM OR DERIVATI…      20906 2018 
##  8     201210467           3512 DRUGS - HEROIN - POSSESS        20906 2018 
##  9     201203874           3522 DRUGS - OPIUM OR DERIVATI…      20832 2018 
## 10     201206873           3522 DRUGS - OPIUM OR DERIVATI…      20879 2018 
## # … with 282 more rows
